img_hdl/simulation/qsim/main.msim.vcd
$comment
	File created using the following command:
		vcd file main.msim.vcd -direction
$end
$date
	Mon Dec 04 00:24:00 2023
$end
$version
	ModelSim Version 10.1d
$end
$timescale
	1ps
$end
$scope module sobel_vlg_vec_tst $end
$var reg 1 ! clk $end
$var reg 8 " din0 [7:0] $end
$var reg 8 # din1 [7:0] $end
$var reg 8 $ din2 [7:0] $end
$var reg 8 % din3 [7:0] $end
$var reg 8 & din4 [7:0] $end
$var reg 8 ' din5 [7:0] $end
$var reg 8 ( din6 [7:0] $end
$var reg 8 ) din7 [7:0] $end
$var reg 8 * din8 [7:0] $end
$var wire 1 + dout [7] $end
$var wire 1 , dout [6] $end
$var wire 1 - dout [5] $end
$var wire 1 . dout [4] $end
$var wire 1 / dout [3] $end
$var wire 1 0 dout [2] $end
$var wire 1 1 dout [1] $end
$var wire 1 2 dout [0] $end
$var wire 1 3 sampler $end
$scope module i1 $end
$var wire 1 4 gnd $end
$var wire 1 5 vcc $end
$var wire 1 6 unknown $end
$var tri1 1 7 devclrn $end
$var tri1 1 8 devpor $end
$var tri1 1 9 devoe $end
$var wire 1 : Add11~0_combout $end
$var wire 1 ; Add11~1 $end
$var wire 1 < Add12~0_combout $end
$var wire 1 = Add12~1 $end
$var wire 1 > Add0~0_combout $end
$var wire 1 ? Add0~1 $end
$var wire 1 @ Add5~0_combout $end
$var wire 1 A Add5~1 $end
$var wire 1 B Add7~1_cout $end
$var wire 1 C Add7~2_combout $end
$var wire 1 D Add7~3 $end
$var wire 1 E Add7~4_combout $end
$var wire 1 F Add7~5 $end
$var wire 1 G Add7~6_combout $end
$var wire 1 H Add7~7 $end
$var wire 1 I Add7~8_combout $end
$var wire 1 J Add7~9 $end
$var wire 1 K Add7~10_combout $end
$var wire 1 L Add7~11 $end
$var wire 1 M Add7~12_combout $end
$var wire 1 N Add7~13 $end
$var wire 1 O Add7~14_combout $end
$var wire 1 P Add7~15 $end
$var wire 1 Q Add7~16_combout $end
$var wire 1 R Add7~17 $end
$var wire 1 S Add7~18_combout $end
$var wire 1 T Add7~19 $end
$var wire 1 U Add7~20_combout $end
$var wire 1 V Add0~2_combout $end
$var wire 1 W Add0~3 $end
$var wire 1 X Add0~4_combout $end
$var wire 1 Y Add0~5 $end
$var wire 1 Z Add0~6_combout $end
$var wire 1 [ Add0~7 $end
$var wire 1 \ Add0~8_combout $end
$var wire 1 ] Add0~9 $end
$var wire 1 ^ Add0~10_combout $end
$var wire 1 _ Add0~11 $end
$var wire 1 ` Add0~12_combout $end
$var wire 1 a Add0~13 $end
$var wire 1 b Add0~14_combout $end
$var wire 1 c Add0~15 $end
$var wire 1 d Add0~16_combout $end
$var wire 1 e Add0~17 $end
$var wire 1 f Add0~18_combout $end
$var wire 1 g Add0~19 $end
$var wire 1 h Add0~20_combout $end
$var wire 1 i Add1~0_combout $end
$var wire 1 j Add1~1 $end
$var wire 1 k Add1~2_combout $end
$var wire 1 l Add1~3 $end
$var wire 1 m Add1~4_combout $end
$var wire 1 n Add1~5 $end
$var wire 1 o Add1~6_combout $end
$var wire 1 p Add1~7 $end
$var wire 1 q Add1~8_combout $end
$var wire 1 r Add1~9 $end
$var wire 1 s Add1~10_combout $end
$var wire 1 t Add1~11 $end
$var wire 1 u Add1~12_combout $end
$var wire 1 v Add1~13 $end
$var wire 1 w Add1~14_combout $end
$var wire 1 x Add1~15 $end
$var wire 1 y Add1~16_combout $end
$var wire 1 z Add1~17 $end
$var wire 1 { Add1~18_combout $end
$var wire 1 | Add1~19 $end
$var wire 1 } Add1~20_combout $end
$var wire 1 ~ Add2~0_combout $end
$var wire 1 !! Add2~1 $end
$var wire 1 "! Add2~2_combout $end
$var wire 1 #! Add2~3 $end
$var wire 1 $! Add2~4_combout $end
$var wire 1 %! Add2~5 $end
$var wire 1 &! Add2~6_combout $end
$var wire 1 '! Add2~7 $end
$var wire 1 (! Add2~8_combout $end
$var wire 1 )! Add2~9 $end
$var wire 1 *! Add2~10_combout $end
$var wire 1 +! Add2~11 $end
$var wire 1 ,! Add2~12_combout $end
$var wire 1 -! Add2~13 $end
$var wire 1 .! Add2~14_combout $end
$var wire 1 /! Add2~15 $end
$var wire 1 0! Add2~16_combout $end
$var wire 1 1! Add2~17 $end
$var wire 1 2! Add2~18_combout $end
$var wire 1 3! Add2~19 $end
$var wire 1 4! Add2~20_combout $end
$var wire 1 5! Add3~0_combout $end
$var wire 1 6! Add3~1 $end
$var wire 1 7! Add3~2_combout $end
$var wire 1 8! Add3~3 $end
$var wire 1 9! Add3~4_combout $end
$var wire 1 :! Add3~5 $end
$var wire 1 ;! Add3~6_combout $end
$var wire 1 <! Add3~7 $end
$var wire 1 =! Add3~8_combout $end
$var wire 1 >! Add3~9 $end
$var wire 1 ?! Add3~10_combout $end
$var wire 1 @! Add3~11 $end
$var wire 1 A! Add3~12_combout $end
$var wire 1 B! Add3~13 $end
$var wire 1 C! Add3~14_combout $end
$var wire 1 D! Add3~15 $end
$var wire 1 E! Add3~16_combout $end
$var wire 1 F! Add3~17 $end
$var wire 1 G! Add3~18_combout $end
$var wire 1 H! Add3~19 $end
$var wire 1 I! Add3~20_combout $end
$var wire 1 J! Add3~21 $end
$var wire 1 K! Add3~22_combout $end
$var wire 1 L! Add4~1_cout $end
$var wire 1 M! Add4~2_combout $end
$var wire 1 N! Add4~3 $end
$var wire 1 O! Add4~4_combout $end
$var wire 1 P! Add4~5 $end
$var wire 1 Q! Add4~6_combout $end
$var wire 1 R! Add4~7 $end
$var wire 1 S! Add4~8_combout $end
$var wire 1 T! Add4~9 $end
$var wire 1 U! Add4~10_combout $end
$var wire 1 V! Add4~11 $end
$var wire 1 W! Add4~12_combout $end
$var wire 1 X! Add4~13 $end
$var wire 1 Y! Add4~14_combout $end
$var wire 1 Z! Add4~15 $end
$var wire 1 [! Add4~16_combout $end
$var wire 1 \! Add4~17 $end
$var wire 1 ]! Add4~18_combout $end
$var wire 1 ^! Add5~2_combout $end
$var wire 1 _! Add5~3 $end
$var wire 1 `! Add5~4_combout $end
$var wire 1 a! Add5~5 $end
$var wire 1 b! Add5~6_combout $end
$var wire 1 c! Add5~7 $end
$var wire 1 d! Add5~8_combout $end
$var wire 1 e! Add5~9 $end
$var wire 1 f! Add5~10_combout $end
$var wire 1 g! Add5~11 $end
$var wire 1 h! Add5~12_combout $end
$var wire 1 i! Add5~13 $end
$var wire 1 j! Add5~14_combout $end
$var wire 1 k! Add5~15 $end
$var wire 1 l! Add5~16_combout $end
$var wire 1 m! Add5~17 $end
$var wire 1 n! Add5~18_combout $end
$var wire 1 o! Add5~19 $end
$var wire 1 p! Add5~20_combout $end
$var wire 1 q! Add5~21 $end
$var wire 1 r! Add5~22_combout $end
$var wire 1 s! Add5~23 $end
$var wire 1 t! Add5~24_combout $end
$var wire 1 u! Add5~25 $end
$var wire 1 v! Add5~26_combout $end
$var wire 1 w! Add5~27 $end
$var wire 1 x! Add5~28_combout $end
$var wire 1 y! Add6~18_combout $end
$var wire 1 z! Add8~0_combout $end
$var wire 1 {! Add8~1 $end
$var wire 1 |! Add8~2_combout $end
$var wire 1 }! Add8~3 $end
$var wire 1 ~! Add8~4_combout $end
$var wire 1 !" Add8~5 $end
$var wire 1 "" Add8~6_combout $end
$var wire 1 #" Add8~7 $end
$var wire 1 $" Add8~8_combout $end
$var wire 1 %" Add8~9 $end
$var wire 1 &" Add8~10_combout $end
$var wire 1 '" Add8~11 $end
$var wire 1 (" Add8~12_combout $end
$var wire 1 )" Add8~13 $end
$var wire 1 *" Add8~14_combout $end
$var wire 1 +" Add8~15 $end
$var wire 1 ," Add8~16_combout $end
$var wire 1 -" Add8~17 $end
$var wire 1 ." Add8~18_combout $end
$var wire 1 /" Add8~19 $end
$var wire 1 0" Add8~20_combout $end
$var wire 1 1" Add9~0_combout $end
$var wire 1 2" Add9~1 $end
$var wire 1 3" Add9~2_combout $end
$var wire 1 4" Add9~3 $end
$var wire 1 5" Add9~4_combout $end
$var wire 1 6" Add9~5 $end
$var wire 1 7" Add9~6_combout $end
$var wire 1 8" Add9~7 $end
$var wire 1 9" Add9~8_combout $end
$var wire 1 :" Add9~9 $end
$var wire 1 ;" Add9~10_combout $end
$var wire 1 <" Add9~11 $end
$var wire 1 =" Add9~12_combout $end
$var wire 1 >" Add9~13 $end
$var wire 1 ?" Add9~14_combout $end
$var wire 1 @" Add9~15 $end
$var wire 1 A" Add9~16_combout $end
$var wire 1 B" Add9~17 $end
$var wire 1 C" Add9~18_combout $end
$var wire 1 D" Add9~19 $end
$var wire 1 E" Add9~20_combout $end
$var wire 1 F" Add10~1_cout $end
$var wire 1 G" Add10~2_combout $end
$var wire 1 H" Add10~3 $end
$var wire 1 I" Add10~4_combout $end
$var wire 1 J" Add10~5 $end
$var wire 1 K" Add10~6_combout $end
$var wire 1 L" Add10~7 $end
$var wire 1 M" Add10~8_combout $end
$var wire 1 N" Add10~9 $end
$var wire 1 O" Add10~10_combout $end
$var wire 1 P" Add10~11 $end
$var wire 1 Q" Add10~12_combout $end
$var wire 1 R" Add10~13 $end
$var wire 1 S" Add10~14_combout $end
$var wire 1 T" Add10~15 $end
$var wire 1 U" Add10~16_combout $end
$var wire 1 V" Add10~17 $end
$var wire 1 W" Add10~18_combout $end
$var wire 1 X" Add11~2_combout $end
$var wire 1 Y" Add11~3 $end
$var wire 1 Z" Add11~4_combout $end
$var wire 1 [" Add11~5 $end
$var wire 1 \" Add11~6_combout $end
$var wire 1 ]" Add11~7 $end
$var wire 1 ^" Add11~8_combout $end
$var wire 1 _" Add11~9 $end
$var wire 1 `" Add11~10_combout $end
$var wire 1 a" Add11~11 $end
$var wire 1 b" Add11~12_combout $end
$var wire 1 c" Add11~13 $end
$var wire 1 d" Add11~14_combout $end
$var wire 1 e" Add11~15 $end
$var wire 1 f" Add11~16_combout $end
$var wire 1 g" Add11~17 $end
$var wire 1 h" Add11~18_combout $end
$var wire 1 i" Add11~19 $end
$var wire 1 j" Add11~20_combout $end
$var wire 1 k" Add11~21 $end
$var wire 1 l" Add11~22_combout $end
$var wire 1 m" Add11~23 $end
$var wire 1 n" Add11~24_combout $end
$var wire 1 o" Add11~25 $end
$var wire 1 p" Add11~26_combout $end
$var wire 1 q" Add12~2_combout $end
$var wire 1 r" Add12~3 $end
$var wire 1 s" Add12~4_combout $end
$var wire 1 t" Add12~5 $end
$var wire 1 u" Add12~6_combout $end
$var wire 1 v" Add12~7 $end
$var wire 1 w" Add12~8_combout $end
$var wire 1 x" Add12~9 $end
$var wire 1 y" Add12~10_combout $end
$var wire 1 z" Add12~11 $end
$var wire 1 {" Add12~12_combout $end
$var wire 1 |" Add12~13 $end
$var wire 1 }" Add12~14_combout $end
$var wire 1 ~" Add12~15 $end
$var wire 1 !# Add12~16_combout $end
$var wire 1 "# Add12~17 $end
$var wire 1 ## Add12~18_combout $end
$var wire 1 $# Add12~19 $end
$var wire 1 %# Add12~20_combout $end
$var wire 1 &# Add12~21 $end
$var wire 1 '# Add12~22_combout $end
$var wire 1 (# Add12~23 $end
$var wire 1 )# Add12~24_combout $end
$var wire 1 *# Add12~25 $end
$var wire 1 +# Add12~26_combout $end
$var wire 1 ,# Add13~0_combout $end
$var wire 1 -# Add13~1 $end
$var wire 1 .# Add13~2_combout $end
$var wire 1 /# Add13~3 $end
$var wire 1 0# Add13~4_combout $end
$var wire 1 1# Add13~5 $end
$var wire 1 2# Add13~6_combout $end
$var wire 1 3# Add13~7 $end
$var wire 1 4# Add13~8_combout $end
$var wire 1 5# Add13~9 $end
$var wire 1 6# Add13~10_combout $end
$var wire 1 7# Add13~11 $end
$var wire 1 8# Add13~12_combout $end
$var wire 1 9# Add13~13 $end
$var wire 1 :# Add13~14_combout $end
$var wire 1 ;# Add13~15 $end
$var wire 1 <# Add13~16_combout $end
$var wire 1 =# Add13~17 $end
$var wire 1 ># Add13~18_combout $end
$var wire 1 ?# Add13~19 $end
$var wire 1 @# Add13~20_combout $end
$var wire 1 A# Add13~21 $end
$var wire 1 B# Add13~22_combout $end
$var wire 1 C# Add13~23 $end
$var wire 1 D# Add13~24_combout $end
$var wire 1 E# Add13~25 $end
$var wire 1 F# Add13~26_combout $end
$var wire 1 G# Add14~8_combout $end
$var wire 1 H# Add14~24_combout $end
$var wire 1 I# Add15~0_combout $end
$var wire 1 J# Add15~1 $end
$var wire 1 K# Add15~2_combout $end
$var wire 1 L# Add15~3 $end
$var wire 1 M# Add15~4_combout $end
$var wire 1 N# Add15~5 $end
$var wire 1 O# Add16~0_combout $end
$var wire 1 P# Add16~1 $end
$var wire 1 Q# Add17~0_combout $end
$var wire 1 R# Add17~1 $end
$var wire 1 S# Add15~6_combout $end
$var wire 1 T# Add15~7 $end
$var wire 1 U# Add15~8_combout $end
$var wire 1 V# Add15~9 $end
$var wire 1 W# Add15~10_combout $end
$var wire 1 X# Add15~11 $end
$var wire 1 Y# Add15~12_combout $end
$var wire 1 Z# Add15~13 $end
$var wire 1 [# Add15~14_combout $end
$var wire 1 \# Add15~15 $end
$var wire 1 ]# Add15~16_combout $end
$var wire 1 ^# Add15~17 $end
$var wire 1 _# Add15~18_combout $end
$var wire 1 `# Add16~2_combout $end
$var wire 1 a# Add16~3 $end
$var wire 1 b# Add16~4_combout $end
$var wire 1 c# Add16~5 $end
$var wire 1 d# Add16~6_combout $end
$var wire 1 e# Add16~7 $end
$var wire 1 f# Add16~8_combout $end
$var wire 1 g# Add16~9 $end
$var wire 1 h# Add16~10_combout $end
$var wire 1 i# Add16~11 $end
$var wire 1 j# Add16~12_combout $end
$var wire 1 k# Add16~13 $end
$var wire 1 l# Add16~14_combout $end
$var wire 1 m# Add17~2_combout $end
$var wire 1 n# Add17~3 $end
$var wire 1 o# Add17~4_combout $end
$var wire 1 p# Add17~5 $end
$var wire 1 q# Add17~6_combout $end
$var wire 1 r# Add17~7 $end
$var wire 1 s# Add17~8_combout $end
$var wire 1 t# Add17~9 $end
$var wire 1 u# Add17~10_combout $end
$var wire 1 v# Add17~11 $end
$var wire 1 w# Add17~12_combout $end
$var wire 1 x# Add17~13 $end
$var wire 1 y# Add17~14_combout $end
$var wire 1 z# LessThan2~6_combout $end
$var wire 1 {# LessThan2~7_combout $end
$var wire 1 |# LessThan2~8_combout $end
$var wire 1 }# LessThan2~9_combout $end
$var wire 1 ~# LessThan2~16_combout $end
$var wire 1 !$ LessThan2~17_combout $end
$var wire 1 "$ LessThan2~18_combout $end
$var wire 1 #$ b~0_combout $end
$var wire 1 $$ always0~0_combout $end
$var wire 1 %$ a~0_combout $end
$var wire 1 &$ a~1_combout $end
$var wire 1 '$ b~1_combout $end
$var wire 1 ($ b~2_combout $end
$var wire 1 )$ b~3_combout $end
$var wire 1 *$ b~4_combout $end
$var wire 1 +$ b~5_combout $end
$var wire 1 ,$ b~6_combout $end
$var wire 1 -$ b~7_combout $end
$var wire 1 .$ LessThan4~20_combout $end
$var wire 1 /$ LessThan4~24_combout $end
$var wire 1 0$ clk~combout $end
$var wire 1 1$ Add6~0_combout $end
$var wire 1 2$ Add6~1 $end
$var wire 1 3$ Add6~3 $end
$var wire 1 4$ Add6~5 $end
$var wire 1 5$ Add6~7 $end
$var wire 1 6$ Add6~9 $end
$var wire 1 7$ Add6~11 $end
$var wire 1 8$ Add6~13 $end
$var wire 1 9$ Add6~15 $end
$var wire 1 :$ Add6~17 $end
$var wire 1 ;$ Add6~19 $end
$var wire 1 <$ Add6~21 $end
$var wire 1 =$ Add6~23 $end
$var wire 1 >$ Add6~25 $end
$var wire 1 ?$ Add6~26_combout $end
$var wire 1 @$ Add14~1 $end
$var wire 1 A$ Add14~3 $end
$var wire 1 B$ Add14~5 $end
$var wire 1 C$ Add14~7 $end
$var wire 1 D$ Add14~9 $end
$var wire 1 E$ Add14~11 $end
$var wire 1 F$ Add14~13 $end
$var wire 1 G$ Add14~15 $end
$var wire 1 H$ Add14~17 $end
$var wire 1 I$ Add14~19 $end
$var wire 1 J$ Add14~21 $end
$var wire 1 K$ Add14~22_combout $end
$var wire 1 L$ Add6~22_combout $end
$var wire 1 M$ LessThan2~5_combout $end
$var wire 1 N$ Add6~24_combout $end
$var wire 1 O$ Add6~20_combout $end
$var wire 1 P$ Add14~18_combout $end
$var wire 1 Q$ Add6~16_combout $end
$var wire 1 R$ Add14~16_combout $end
$var wire 1 S$ LessThan2~2_combout $end
$var wire 1 T$ LessThan2~3_combout $end
$var wire 1 U$ LessThan2~4_combout $end
$var wire 1 V$ Add14~14_combout $end
$var wire 1 W$ Add14~12_combout $end
$var wire 1 X$ Add14~10_combout $end
$var wire 1 Y$ Add6~8_combout $end
$var wire 1 Z$ Add14~6_combout $end
$var wire 1 [$ Add14~4_combout $end
$var wire 1 \$ Add14~0_combout $end
$var wire 1 ]$ Add14~2_combout $end
$var wire 1 ^$ LessThan2~10_combout $end
$var wire 1 _$ LessThan2~11_combout $end
$var wire 1 `$ LessThan2~12_combout $end
$var wire 1 a$ LessThan2~20_combout $end
$var wire 1 b$ LessThan2~13_combout $end
$var wire 1 c$ LessThan2~14_combout $end
$var wire 1 d$ LessThan2~15_combout $end
$var wire 1 e$ LessThan2~21_combout $end
$var wire 1 f$ Add6~27 $end
$var wire 1 g$ Add6~28_combout $end
$var wire 1 h$ Add14~23 $end
$var wire 1 i$ Add14~25 $end
$var wire 1 j$ Add14~27 $end
$var wire 1 k$ Add14~28_combout $end
$var wire 1 l$ LessThan2~22_combout $end
$var wire 1 m$ Add14~29 $end
$var wire 1 n$ Add14~30_combout $end
$var wire 1 o$ LessThan2~19_combout $end
$var wire 1 p$ dout[0]~0_combout $end
$var wire 1 q$ always0~1_combout $end
$var wire 1 r$ Add18~0_combout $end
$var wire 1 s$ Add18~1 $end
$var wire 1 t$ Add18~3 $end
$var wire 1 u$ Add18~5 $end
$var wire 1 v$ Add18~7 $end
$var wire 1 w$ Add18~9 $end
$var wire 1 x$ Add18~11 $end
$var wire 1 y$ Add18~13 $end
$var wire 1 z$ Add18~14_combout $end
$var wire 1 {$ Add18~12_combout $end
$var wire 1 |$ Add18~10_combout $end
$var wire 1 }$ Add18~8_combout $end
$var wire 1 ~$ Add18~6_combout $end
$var wire 1 !% Add18~4_combout $end
$var wire 1 "% Add18~2_combout $end
$var wire 1 #% LessThan4~5_cout $end
$var wire 1 $% LessThan4~7_cout $end
$var wire 1 %% LessThan4~9_cout $end
$var wire 1 &% LessThan4~11_cout $end
$var wire 1 '% LessThan4~13_cout $end
$var wire 1 (% LessThan4~15_cout $end
$var wire 1 )% LessThan4~17_cout $end
$var wire 1 *% LessThan4~18_combout $end
$var wire 1 +% Add14~26_combout $end
$var wire 1 ,% LessThan4~21_combout $end
$var wire 1 -% LessThan4~22_combout $end
$var wire 1 .% Add14~20_combout $end
$var wire 1 /% a~2_combout $end
$var wire 1 0% LessThan4~23_combout $end
$var wire 1 1% dout[0]~reg0_regout $end
$var wire 1 2% Add6~2_combout $end
$var wire 1 3% dout[1]~1_combout $end
$var wire 1 4% dout[1]~reg0_regout $end
$var wire 1 5% Add6~4_combout $end
$var wire 1 6% dout[2]~2_combout $end
$var wire 1 7% dout[2]~reg0_regout $end
$var wire 1 8% Add6~6_combout $end
$var wire 1 9% dout[3]~3_combout $end
$var wire 1 :% dout[3]~reg0_regout $end
$var wire 1 ;% dout[4]~4_combout $end
$var wire 1 <% dout[4]~reg0_regout $end
$var wire 1 =% Add6~10_combout $end
$var wire 1 >% dout[5]~5_combout $end
$var wire 1 ?% dout[5]~reg0_regout $end
$var wire 1 @% Add6~12_combout $end
$var wire 1 A% dout[6]~6_combout $end
$var wire 1 B% dout[6]~reg0_regout $end
$var wire 1 C% Add6~14_combout $end
$var wire 1 D% dout[7]~7_combout $end
$var wire 1 E% dout[7]~reg0_regout $end
$var wire 1 F% din8~combout [7] $end
$var wire 1 G% din8~combout [6] $end
$var wire 1 H% din8~combout [5] $end
$var wire 1 I% din8~combout [4] $end
$var wire 1 J% din8~combout [3] $end
$var wire 1 K% din8~combout [2] $end
$var wire 1 L% din8~combout [1] $end
$var wire 1 M% din8~combout [0] $end
$var wire 1 N% din7~combout [7] $end
$var wire 1 O% din7~combout [6] $end
$var wire 1 P% din7~combout [5] $end
$var wire 1 Q% din7~combout [4] $end
$var wire 1 R% din7~combout [3] $end
$var wire 1 S% din7~combout [2] $end
$var wire 1 T% din7~combout [1] $end
$var wire 1 U% din7~combout [0] $end
$var wire 1 V% din6~combout [7] $end
$var wire 1 W% din6~combout [6] $end
$var wire 1 X% din6~combout [5] $end
$var wire 1 Y% din6~combout [4] $end
$var wire 1 Z% din6~combout [3] $end
$var wire 1 [% din6~combout [2] $end
$var wire 1 \% din6~combout [1] $end
$var wire 1 ]% din6~combout [0] $end
$var wire 1 ^% din5~combout [7] $end
$var wire 1 _% din5~combout [6] $end
$var wire 1 `% din5~combout [5] $end
$var wire 1 a% din5~combout [4] $end
$var wire 1 b% din5~combout [3] $end
$var wire 1 c% din5~combout [2] $end
$var wire 1 d% din5~combout [1] $end
$var wire 1 e% din5~combout [0] $end
$var wire 1 f% din3~combout [7] $end
$var wire 1 g% din3~combout [6] $end
$var wire 1 h% din3~combout [5] $end
$var wire 1 i% din3~combout [4] $end
$var wire 1 j% din3~combout [3] $end
$var wire 1 k% din3~combout [2] $end
$var wire 1 l% din3~combout [1] $end
$var wire 1 m% din3~combout [0] $end
$var wire 1 n% din2~combout [7] $end
$var wire 1 o% din2~combout [6] $end
$var wire 1 p% din2~combout [5] $end
$var wire 1 q% din2~combout [4] $end
$var wire 1 r% din2~combout [3] $end
$var wire 1 s% din2~combout [2] $end
$var wire 1 t% din2~combout [1] $end
$var wire 1 u% din2~combout [0] $end
$var wire 1 v% din1~combout [7] $end
$var wire 1 w% din1~combout [6] $end
$var wire 1 x% din1~combout [5] $end
$var wire 1 y% din1~combout [4] $end
$var wire 1 z% din1~combout [3] $end
$var wire 1 {% din1~combout [2] $end
$var wire 1 |% din1~combout [1] $end
$var wire 1 }% din1~combout [0] $end
$var wire 1 ~% din0~combout [7] $end
$var wire 1 !& din0~combout [6] $end
$var wire 1 "& din0~combout [5] $end
$var wire 1 #& din0~combout [4] $end
$var wire 1 $& din0~combout [3] $end
$var wire 1 %& din0~combout [2] $end
$var wire 1 && din0~combout [1] $end
$var wire 1 '& din0~combout [0] $end
$upscope $end
$upscope $end
$enddefinitions $end
#0
$dumpvars
0!
b100010 "
b100010 #
b100011 $
b100010 %
b100010 &
b100010 '
b100010 (
b100010 )
b100010 *
0N
1O
1P
1Q
0R
1S
1T
1U
0V
0W
0X
1Y
0Z
0[
0\
1]
0^
0_
0`
1a
0b
0c
0d
1e
0f
0g
0h
1i
0j
0k
1l
1m
0n
1o
1p
1q
0r
0s
1t
1u
0v
1w
1x
0y
0z
0{
1|
0}
0~
1!!
1"!
1#!
1$!
0%!
1&!
1'!
1(!
0)!
0*!
1+!
1,!
0-!
1.!
1/!
10!
01!
12!
13!
14!
05!
06!
07!
08!
09!
1:!
0;!
0<!
0=!
1>!
0?!
0@!
0A!
1B!
0C!
0D!
0E!
1F!
0G!
0H!
0I!
1J!
0K!
1L!
1M!
1N!
1O!
0P!
1Q!
1R!
1S!
0T!
0U!
1V!
1W!
0X!
1Y!
1Z!
1[!
0\!
1]!
1^!
1_!
1`!
0a!
1b!
1c!
1d!
0e!
0f!
1g!
1h!
0i!
1j!
1k!
1l!
0m!
1n!
1o!
1p!
0q!
1r!
1s!
1t!
0u!
1v!
1w!
1x!
0y!
0z!
1{!
0|!
0}!
1~!
1!"
1""
0#"
0$"
1%"
0&"
0'"
1("
1)"
1*"
0+"
0,"
1-"
0."
0/"
00"
11"
02"
03"
14"
15"
06"
17"
18"
09"
0:"
0;"
1<"
1="
0>"
1?"
1@"
1A"
0B"
1C"
1D"
1E"
0F"
0G"
1H"
1I"
0J"
1K"
1L"
1M"
0N"
0O"
1P"
1Q"
0R"
1S"
1T"
1U"
0V"
1W"
1X"
1Y"
1Z"
0["
0\"
0]"
1^"
1_"
1`"
1a"
1b"
0c"
0d"
0e"
1f"
1g"
1h"
0i"
1j"
1k"
1l"
0m"
1n"
1o"
1p"
0q"
0r"
0s"
1t"
1u"
1v"
1w"
0x"
0y"
0z"
0{"
1|"
1}"
1~"
1!#
0"#
1##
1$#
1%#
0&#
1'#
1(#
1)#
0*#
1+#
0,#
0-#
1.#
1/#
10#
01#
12#
13#
04#
05#
16#
17#
18#
09#
1:#
1;#
1<#
0=#
1>#
1?#
1@#
0A#
1B#
1C#
1D#
0E#
1F#
1G#
1H#
0I#
0J#
0K#
1L#
0M#
0N#
1O#
0P#
1Q#
0R#
0S#
1T#
0U#
0V#
0W#
1X#
0Y#
0Z#
0[#
1\#
0]#
0^#
0_#
1`#
1a#
1b#
0c#
1d#
1e#
1f#
0g#
1h#
1i#
1j#
0k#
1l#
1m#
1n#
1o#
0p#
1q#
1r#
1s#
0t#
1u#
1v#
1w#
0x#
1y#
0z#
0{#
0|#
0}#
1~#
0!$
0"$
0#$
0$$
1%$
1&$
0'$
0($
0)$
0*$
0+$
0,$
0-$
1.$
0/$
00$
11$
02$
03$
14$
05$
16$
07$
18$
09$
1:$
0;$
1<$
0=$
1>$
0?$
0@$
1A$
0B$
1C$
0D$
1E$
0F$
1G$
0H$
1I$
0J$
1K$
0L$
1M$
0N$
0O$
1P$
0Q$
1R$
0S$
0T$
0U$
1V$
1W$
1X$
0Y$
1Z$
1[$
1\$
1]$
0^$
0_$
0`$
0a$
0b$
0c$
0d$
0e$
0f$
0g$
1h$
0i$
1j$
1k$
0l$
0m$
1n$
0o$
1p$
1q$
0r$
1s$
0t$
1u$
0v$
1w$
0x$
1y$
0z$
0{$
0|$
0}$
0~$
0!%
0"%
0#%
1$%
0%%
1&%
0'%
1(%
0)%
0*%
1+%
0,%
0-%
1.%
1/%
00%
01%
02%
13%
04%
05%
16%
07%
08%
19%
0:%
1;%
0<%
0=%
1>%
0?%
0@%
1A%
0B%
0C%
1D%
0E%
0M%
1L%
0K%
0J%
0I%
1H%
0G%
0F%
0U%
1T%
0S%
0R%
0Q%
1P%
0O%
0N%
0]%
1\%
0[%
0Z%
0Y%
1X%
0W%
0V%
0e%
1d%
0c%
0b%
0a%
1`%
0_%
0^%
0m%
1l%
0k%
0j%
0i%
1h%
0g%
0f%
1u%
1t%
0s%
0r%
0q%
1p%
0o%
0n%
0}%
1|%
0{%
0z%
0y%
1x%
0w%
0v%
0'&
1&&
0%&
0$&
0#&
1"&
0!&
0~%
02
01
00
0/
0.
0-
0,
0+
x3
04
15
x6
17
18
19
1:
0;
1<
0=
1>
0?
1@
0A
1B
1C
1D
1E
0F
1G
1H
1I
0J
0K
1L
1M
$end
#10000
1!
10$
03
1E%
1B%
1?%
1<%
1:%
17%
14%
11%
1+
1,
1-
1.
1/
10
11
12
#20000
0!
00$
13
#30000
1!
10$
03
#40000
0!
00$
13
#50000
1!
10$
03
#60000
0!
00$
13
#70000
1!
10$
03
#80000
0!
00$
13
#90000
1!
10$
03
#100000
0!
00$
13
#110000
1!
10$
03
#120000
0!
00$
13
#130000
1!
10$
03
#140000
0!
00$
13
#150000
1!
10$
03
